[7mlsetup              [0m lsetup <tool1> [ <tool2> ...] (see lsetup -h):
[7m lsetup agis        [0m  ATLAS Grid Information System
[7m lsetup asetup      [0m  (or asetup) to setup an Athena release
[7m lsetup atlantis    [0m  Atlantis: event display
[7m lsetup eiclient    [0m  Event Index 
[7m lsetup emi         [0m  EMI: grid middleware user interface 
[7m lsetup ganga       [0m  Ganga: job definition and management client
[7m lsetup lcgenv      [0m  lcgenv: setup tools from cvmfs SFT repository
[7m lsetup panda       [0m  Panda: Production ANd Distributed Analysis
[7m lsetup pod         [0m  Proof-on-Demand (obsolete)
[7m lsetup pyami       [0m  pyAMI: ATLAS Metadata Interface python client
[7m lsetup root        [0m  ROOT data processing framework
[7m lsetup rucio       [0m  distributed data management system client
[7m lsetup sft         [0m  setup tools from SFT repo (use lcgenv instead)
[7m lsetup xcache      [0m  XRootD local proxy cache
[7m lsetup xrootd      [0m  XRootD data access
[7madvancedTools       [0m advanced tools menu
[7mdiagnostics         [0m diagnostic tools menu
[7mhelpMe              [0m more help
[7mprintMenu           [0m show this menu
[7mshowVersions        [0m show versions of installed software

[1m[4m06 Dec 2018[0m
  Soon a new asetup will put into production with major changes. 
   Details can be found here:
    https://twiki.cern.ch/twiki/bin/viewauth/AtlasComputing/AtlasSetupReference
   Please try this new asetup now in the following way:
    lsetup -a testing asetup
    asetup .....
   And report any problem to hn-atlas-offlineSWHelp@cern.ch.

gcc compiler not available in release - falling back to installation at
  /cvmfs/sft.cern.ch/lcg/releases/gcc/6.2.0-2bc78/x86_64-slc6
Using AnalysisTop/21.2.42 [cmake] with platform x86_64-slc6-gcc62-opt
	at /cvmfs/atlas.cern.ch/repo/sw/software/21.2
Config.txt
_condor_stdout
condor_exec.exe
smolamic
smolamic.cc
tmp
user.fschenck.AllYear.physics_Main.DAOD_TOPQ1.grp15_v01_p3601.VLQWb_21255_28-Nov-18_fakes_output.root.sample.txt
var
user.fschenck.AllYear.physics_Main.DAOD_TOPQ1.grp15_v01_p3601.VLQWb_21255_28-Nov-18_fakes_output.root.sample
/pnfs/desy.de/atlas//dq2/atlaslocalgroupdisk/rucio/user/fschenck/c3/fd/user.fschenck.16299696._000013.output.root
/pnfs/desy.de/atlas//dq2/atlaslocalgroupdisk/rucio/user/fschenck/c8/76/user.fschenck.16299696._000037.output.root
xAOD::Init                INFO    Environment initialised for data access
Configuration Files:
    Config.txt
    user.fschenck.AllYear.physics_Main.DAOD_TOPQ1.grp15_v01_p3601.VLQWb_21255_28-Nov-18_fakes_output.root.sample.txt

Configuration:
"ApplyElectronInJetSubtraction"          : "False"                             - Subtract electrons close to jets for boosted analysis : True or False(top default)
"ApplyTauMVATES"                         : "True"                              - Apply new Tau energy calibration based on substructure information and regression. Must be True. Deprecated.
"ApplyTightSFsInLooseTree"               : "True"                              - Special: in Loose trees, calculate lepton SFs with tight leptons only, and considering they are tight: True or False (default)
"BTagVariableSaveList"                   : "MV2c10_discriminant"               - The list of b-tag variables to save (EventSaverxAODNext only).
"BTaggingCalibrationB"                   : "default"                           - The calibration to use for the b-tagging SFs (B-jets). Default 'default'
"BTaggingCalibrationC"                   : "default"                           - The calibration to use for the b-tagging SFs (C- and T-jets). Default 'default'
"BTaggingCalibrationLight"               : "default"                           - The calibration to use for the b-tagging SFs (Light-jets). Default 'default'
"BTaggingSystExcludedFromEV"             : "none"                              - User-defined list of b-tagging systematics to be dextracted from eigenvector decomposition, separated by semi-colons (none by default)
"BTaggingWP"                             : "FixedCutBEff_77"                   - b-tagging WPs to use in the analysis, separated by commas. The format should follow the convention of the b-tagging CP group, e.g. FixedCutBEff_60, FlatBEff_77, Continuous, etc. For fixed-cut WPs, the simpler format 60%, instead of FixedCutBEff_60, is also tolerated. The specified WPs which are calibrated for all flavours will have scale-factors computed. By default, no WP is used.
"Debug"                                  : "False"                             - Dynamic parameter
"DoLoose"                                : "Both"                              - Run Loose selection and dumps the Loose trees : Data (default), MC, Both, False
"DoParticleLevelOverlapRemoval"          : "True"                              - Perform overlap removal at particle level? True (default), False, or any combination (comma separated) of MuonJet, ElectronJet, JetPhoton
"DoTight"                                : "False"                             - Dumps the normal non-"*_Loose" trees : Data, MC, Both (default), False
"DumpBtagSystsInSystTrees"               : "False"                             - Dump systematics-shifted b-tagging SFs in systematic TTrees, True or False (default: False)
"DynamicKeys"                            : "Debug,EventWeights,RateType"       - Additional dynamic key list seperated by ,
"EgammaSystematicModel"                  : "1NP_v1"                            - Egamma Systematic model : FULL_v1 , FULL_ETACORRELATED_v1 , 1NP_v1 (default)
"ElectronCollectionName"                 : "Electrons"                         - Name of the Electron container
"ElectronID"                             : "TightLH"                           - Type of electron. IsEM : Loose, Medium, Tight or Likelihood LooseAndBLayerLH, MediumLH, TightLH
"ElectronIDLoose"                        : "MediumLH"                          - Type of electron for background. IsEM : Loose, Medium, Tight or Likelihood LooseAndBLayerLH, MediumLH, TightLH
"ElectronIsolation"                      : "Gradient"                          - Isolation to use : Gradient, GradientLoose, FixedCutTight, FixedCutTightTrackOnly, FixedCutLoose, LooseTrackOnly, Loose, Tight, FixedCutHighPtCaloOnly, FCTight, FCLoose, None
"ElectronIsolationLoose"                 : "None"                              - Isolation to use : Gradient, GradientLoose, FixedCutTight, FixedCutTightTrackOnly, FixedCutLoose, LooseTrackOnly, Loose, Tight, FixedCutHighPtCaloOnly, FCTight, FCLoose, None
"ElectronIsolationSF"                    : " "                                 - Force electron isolation SF (e.g. None). EXPERIMENTAL!
"ElectronIsolationSFLoose"               : " "                                 - Force electron isolation SF (e.g. None). EXPERIMENTAL!
"ElectronPt"                             : "10000."                            - Electron pT cut for object selection (in MeV). Default 25 GeV.
"ElectronTriggers"                       : "None"                              - Trigger list for GlobalLeptonTriggerSF - Format as 2015@trig1,trig2 2016@trig3,trig4 : Separate periods defined with @ using whitespace, triggers with comma (default: None)
"ElectronTriggersLoose"                  : "None"                              - Trigger list for GlobalLeptonTriggerSF - Format as 2015@trig1,trig2 2016@trig3,trig4 : Separate periods defined with @ using whitespace, triggers with comma (default: None)
"ElectronVariableSaveList"               : "pt.eta.phi.m.charge.ptvarcone20.topoetcone20.passPreORSelection" - The list of electron variables to save (EventSaverxAODNext only).
"ElectronVetoLArCrack"                   : "False"                             - True/False. Set to False to disable LAr crack veto (not recommended).
"EventVariableSaveList"                  : "runNumber.eventNumber.eventTypeBitmask.averageInteractionsPerCrossing" - The list of event variables to save (EventSaverxAODNext only).
"EventWeights"                           : "True"                              - Dynamic parameter
"FakesMMDebug"                           : "False"                             - Enables debug mode for matrix-method weight calculation: True, False (default)
"FakesMMDir"                             : "$ROOTCOREBIN/data/TopFakes"        - Directory of files containing efficiencies for fake prompt leptons estimate - default is $ROOTCOREBIN/data/TopFakes
"FakesMMWeights"                         : "False"                             - Calculate matrix-method weights for fake prompt leptons estimate : True (calculate weights), False (does nothing)
"FirstEvent"                             : "0"                                 - The number of events that you want to skip (for testing). If 0 then no events are skipped.
"FwdJetAndMET"                           : "Default"                           - Forward jet selection and corresponding MET calculation.Default (does nothing on forward jets), fJVT (apply fJVT cut if pT<50GeV and |eta|>2.5), Tight (requires pT>30GeV if |eta|>2.5).
"GRLDir"                                 : "/cvmfs/atlas.cern.ch/repo/sw/database/GroupData/GoodRunsLists/" - Location of GRL File
"GRLFile"                                : "data15_13TeV/20170619/physics_25ns_21.0.19.xml data16_13TeV/20180129/physics_25ns_21.0.19.xml data17_13TeV/20180619/physics_25ns_Triggerno17e33prim.xml" - Name of GRL File
"HLLHC"                                  : "False"                             - Set to run HL-LHC studies,True or False (default False)
"HLLHCFakes"                             : "False"                             - Set to enable Fakes HL-LHC studies,True or False (default False)
"IsAFII"                                 : "False"                             - Define if you are running over a fastsim sample: True or False
"JSF"                                    : "1.0"                               - Used for top mass analysis, default is 1.0
"JVTinMETCalculation"                    : "True"                              - Perfom a JVT cut on the jets in the MET recalculation? True (default) or False.
"JetCalibSequence"                       : "GSC"                               - Jet calibaration sequence, GSC (default) or JMS
"JetCollectionName"                      : "AntiKt4EMTopoJets"                 - Name of the Jet container
"JetEta"                                 : "4.5"                               - Absolute Jet eta cut for object selection. Default 2.5.
"JetGhostTrackDecoName"                  : "None"                              - Name of the jet decoration that holds the ghost-associated track.
"JetJERSmearingModel"                    : "Simple"                            - All (inc. data smearing), All_PseudoData (use MC as pseudo-data), Full (inc. data smearing), Full_PseudoData (use MC as pseudo-data) or Simple (MC only - default)
"JetPt"                                  : "25000."                            - Jet pT cut for object selection (in MeV). Default 25 GeV.
"JetUncertainties_BunchSpacing"          : "25ns"                              - 25ns (default) or 50ns - for JetUncertainties
"JetUncertainties_NPModel"               : "GlobalReduction"                   - AllNuisanceParameters, CategoryReduction (default), GlobalReduction, StrongReduction - for JetUncertainties
"JetUncertainties_QGFracFile"            : "None"                              - To specify a root file with quark/gluon fractions, in order to reduce FlavourComposition and response uncertainties. Default: None (i.e. no file is used and default flat 50+/-50% fraction is used).
"JetUncertainties_QGHistPatterns"        : "None"                              - To specify a pattern for the name of the quark/gluon fractions histograms, or a list of DSIDs which will have their specific histogram. Two syntaxes are possible, either a single string or a list of DSIDs separated by commas:   "MyQGHisto" (the histograms with "MyQGHisto" in their names will be used for all DSIDs),   "410470,410472,345873,345874,345875" (for the listed DSIDs, histograms with the processed DSID will be used, while the flat 50+/-50% fraction will be used for the other DSIDs). Default: None (i.e. no specific pattern is looked for in the name of the provided histograms).
"JetVariableSaveList"                    : "pt.eta.phi.m.passPreORSelection.btaggingLink.HadronConeExclTruthLabelID" - The list of jet variables to save (EventSaverxAODNext only).
"KLFitterBTaggingMethod"                 : "kNotag"                            - Recommend use kNotag or kVetoNoFit - see KLFitter TWiki
"KLFitterFailOnLessThanXJets"            : "False"                             - Fail if kLeadingX or kBtagPriorityXJets is set and the number of jets in the event is less than X (Default is False)
"KLFitterJetSelectionMode"               : "kBtagPriorityFourJets"             - kLeadingThree , kLeadingFour , kLeadingFive , kLeadingSix , kLeadingSeven , kBtagPriorityThreeJets , kBtagPriorityFourJets , kBtagPriorityFiveJets, kBtagPrioritySixJets , kBtagPrioritySevenJets
"KLFitterLH"                             : "ttbar"                             - Select likelihood depending on signal, ttbar, ttbar_angles, ttH, ttZTrilepton, ttbar_AllHadronic, ttbar_BoostedLJets
"KLFitterOutput"                         : "FULL"                              - Select the KLFitter output (FULL, FITTEDTOPS_ONLY, JETPERM_ONLY)
"KLFitterSaveAllPermutations"            : "False"                             - Save All permutations to the output file (False will save only the best)
"KLFitterTopMassFixed"                   : "True"                              - Fix the mass of the top quark? True or False
"KLFitterTransferFunctionsPath"          : "mc12a/akt4_LCtopo_PP6"             - Select the transfer functions to use
"KillExperimental"                       : " "                                 - Disable some specific experimental feature.
"LHAPDFBaseSet"                          : " "                                 - Base PDF set used to recalculate XF1,XF2 values if they are zero. Will be added to LHAPDFSets.
"LHAPDFEventWeights"                     : "False"                             - Save per event weights for all PDF sets/members: True (lots of info in truth tree!), Nominal (save to the nominal tree if passes selection) or False (nothing, default).
"LHAPDFSets"                             : " "                                 - List of PDF sets to calculate weights for, seperated by spaces, use LHAPDF names e.g CT10nlo NNPDF30_nlo_as_0118 MMHT2014nlo68cl
"LargeJetCollectionName"                 : "None"                              - Name of the large-R Jet container
"LargeJetOverlapRemoval"                 : "False"                             - Perform overlap removal including large-R jets. True or False (default: False).
"LargeJetSubstructure"                   : "None"                              - Setup to use when applying grooming on the large-R jet
"LargeRJESJMSConfig"                     : "CombMass"                          - Calibration for large-R JES/JMS. CombMass or CaloMass (default CombMass).
"LargeRJESUncertaintyConfig"             : "Split23,Tau32WTA"                  - Variables to be varied with JES uncertainties. Options:D2Beta1,Tau21WTA,Tau32WTA,Split12,Split23,Qw ( default Split23,Tau32WTA)
"LargeRJetEta"                           : "2.0"                               - Absolute large-R jet eta cut for object selection. Default 2.0.
"LargeRJetPt"                            : "25000."                            - Track Jet pT cut for object selection (in MeV). Default 7 GeV.
"LargeRSmallRCorrelations"               : "False"                             - Do large-small R jet correlation systematics - True or False (default)
"LargeRToptaggingConfigFile"             : "default"                           - Configuration file for top tagging (default or NFC). default=d23,tau32 (recommended) NFC=m,tau32(alternative not optimized on large-R jet containing a truth top)
"LibraryNames"                           : "libTopEventSelectionTools libTopEventReconstructionTools libFakeEfficiencyTool" - Names of any libraries that need loading
"MCGeneratorWeights"                     : "False"                             - Do you want the OTF-computed MC generator weights (if available)? True (in truth tree), Nominal (save to the nominal tree if passes selection) or False (nothing, default)
"MuonCollectionName"                     : "Muons"                             - Name of the Muon container
"MuonEta"                                : "2.5"                               - Absolute Muon eta cut for object selection. Default 2.5.
"MuonIsolation"                          : "Gradient"                          - Isolation to use : Gradient, GradientLoose, Tight, Loose, LooseTrackOnly, FixedCutTight, FixedCutTightTrackOnly, FixedCutLoose, FCTight, FCLoose, FCTightTrackOnly, PromptLepton, None
"MuonIsolationLoose"                     : "None"                              - Isolation to use : Gradient, GradientLoose, Tight, Loose, LooseTrackOnly, FixedCutTight, FixedCutTightTrackOnly, FixedCutLoose, FCTight, FCLoose, FCTightTrackOnly, PromptLepton, None
"MuonIsolationSF"                        : " "                                 - Force muon isolation SF (e.g. None). EXPERIMENTAL!
"MuonIsolationSFLoose"                   : " "                                 - Force muon isolation SF (e.g. None). EXPERIMENTAL!
"MuonPt"                                 : "10000."                            - Muon pT cut for object selection (in MeV). Default 25 GeV.
"MuonQuality"                            : "Medium"                            - Muon quality cut for object selection. Options are VeryLoose, Loose, Medium (default) and Tight
"MuonQualityLoose"                       : "Loose"                             - Muon quality cut for object selection. Options are VeryLoose, Loose, Medium (default) and Tight
"MuonTriggerSF"                          : "HLT_mu20_iloose_L1MU15_OR_HLT_mu50" - Muon trigger SFs to calculate
"MuonTriggers"                           : "None"                              - Trigger list for GlobalLeptonTriggerSF - Format as 2015@trig1,trig2 2016@trig3,trig4 : Separate periods defined with @ using whitespace, triggers with comma (default: None)
"MuonTriggersLoose"                      : "None"                              - Trigger list for GlobalLeptonTriggerSF - Format as 2015@trig1,trig2 2016@trig3,trig4 : Separate periods defined with @ using whitespace, triggers with comma (default: None)
"MuonVariableSaveList"                   : "pt.eta.phi.m.author.charge.ptvarcone30.topoetcone20.muonType.passPreORSelection" - The list of muon variables to save (EventSaverxAODNext only).
"NEvents"                                : "0"                                 - The number of events that you want to run on (for testing). If 0 then all events are run.
"NumberOfBootstrapReplicas"              : "100"                               - Define integer number of replicas to be stored with bootstrapping, Default 100
"ObjectSelectionName"                    : "top::ObjectLoaderStandardCuts"     - Code used to define objects, e.g. ObjectLoaderStandardCuts
"OutputEvents"                           : "SelectedEvents"                    - AllEvents (saves all events + decison bits), SelectedEvents (saves only the events passing your cuts)
"OutputFileBasketSizePrimitive"          : "4096"                              - Set the TTree basket size for primitive objects (int, float, ...). (default: 4096)
"OutputFileBasketSizeVector"             : "40960"                             - Set the TTree basket size for vector objects. (default: 40960)
"OutputFileNEventAutoFlush"              : "1000"                              - Set the number of events after which the TTree cache is optimised, ie setAutoFlush(nEvents). (default: 1000)
"OutputFileSetAutoFlushZero"             : "False"                             - setAutoFlush(0) on EventSaverFlatNtuple for ANALYSISTO-44 workaround. (default: False)
"OutputFilename"                         : "output.root"                       - The file that will contain the output histograms and trees
"OutputFormat"                           : "top::EventSaverTop"                - Format, can be user defined, e.g. top::EventSaverFlatNtuple
"OverlapRemovalLeptonDef"                : "Loose"                             - Special: run overlap removal on : Tight (top default) or Loose (not top default) lepton definitions
"OverlapRemovalProcedure"                : "recommended"                       - Overlap removal procedure to be used. Options include: recommended [default], jetmuApplyRelPt, harmonized, Boosted, BoostedSlidingDREl, BoostedSlidingDRMu, BoostedSlidingDRElMu, noTauJetOLR
"PDFInfo"                                : "False"                             - Do you want the PDF info? True (in truth tree), Nominal (save to the nominal tree if passes selection) or False (nothing, default)
"PRWConfigFiles"                         : "/cvmfs/atlas.cern.ch/repo/sw/database/GroupData/dev/AnalysisTop/PileupReweighting/user.iconnell.Top.PRW.MC16d.FS.v2/prw.merged.root" - List of PU config files, seperated by spaces (nothing by default) - Not compatible with FS/AF options
"PRWConfigFiles_AF"                      : " "                                 - List of PU config files only for fast sim samples, seperated by spaces (nothing by default)
"PRWConfigFiles_FS"                      : " "                                 - List of PU config files only for full sim samples, seperated by spaces (nothing by default)
"PRWCustomScaleFactor"                   : " "                                 - Specify custom scale-factor and up/down variations, for specific studies.Format is 'nominal:up:down'.If nothing is set, the default values will be used (recommended).
"PRWLumiCalcFiles"                       : "/cvmfs/atlas.cern.ch/repo/sw/database/GroupData/GoodRunsLists/data17_13TeV/20180619/physics_25ns_Triggerno17e33prim.lumicalc.OflLumi-13TeV-010.root /cvmfs/atlas.cern.ch/repo/sw/database/GroupData/GoodRunsLists/data15_13TeV/20170619/PHYS_StandardGRL_All_Good_25ns_276262-284484_OflLumi-13TeV-008.root /cvmfs/atlas.cern.ch/repo/sw/database/GroupData/GoodRunsLists/data16_13TeV/20180129/PHYS_StandardGRL_All_Good_25ns_297730-311481_OflLumi-13TeV-009.root" - List of PU lumicalc files, seperated by spaces (nothing by default)
"PRWMuDependent"                         : "True"                              - Use mu dependent random run numbers for MC. True or False (default True)
"PRWUnrepresentedDataTolerance"          : "0.05"                              - Specify value between 0 and 1 to represent acceptable fraction of unrepresented data in PRW [default: 0.05]
"PRWUseGRLTool"                          : "False"                             - Pass the GRL tool to the PU reweighting tool (False by default)
"PerfStats"                              : "None"                              -  I/O Performance printouts. None, Summary or Full
"PhotonCollectionName"                   : "None"                              - Name of the Photon container
"PhotonEta"                              : "2.5"                               - Absolute Photon eta cut for object selection. Default 2.5.
"PhotonID"                               : "Tight"                             - Type of photon. Definition to use : Tight, Loose and None.
"PhotonIDLoose"                          : "Loose"                             - Type of photon for background. Definition to use : Tight, Loose, None.
"PhotonIsolation"                        : "FixedCutTight"                     - Isolation to use : FixedCutTight, FixedCutLoose, None.
"PhotonIsolationLoose"                   : "FixedCutLoose"                     - Isolation to use : FixedCutTight, FixedCutLoose, None.
"PhotonPt"                               : "25000."                            - Photon pT cut for object selection (in MeV). Default 25 GeV.
"PhotonUseRadiativeZ"                    : "False"                             - True/False. Set to True to enable photon radiative Z up to 100 GeV.
"PhotonVariableSaveList"                 : "pt.eta.phi.m.charge.ptvarcone20.topoetcone20.passPreORSelection" - The list of photon variables to save (EventSaverxAODNext only).
"RCJetEta"                               : "2.0"                               - Reclustered Jet eta cut for object selection. Default 2.0.
"RCJetPt"                                : "100000."                           - Reclustered Jet pT cut for object selection (in MeV). Default 100000 MeV.
"RCJetRadius"                            : "1.0"                               - Reclustered Jet radius for object selection. Default 1.0
"RCJetTrim"                              : "0.05"                              - Reclustered Jet trimming cut for object selection. Default 0.05.
"RateType"                               : "Real"                              - Dynamic parameter
"SaveBootstrapWeights"                   : "False"                             - Set to true in order to save Poisson bootstrap weights,True or False (default False)
"Systematics"                            : "Nominal"                           - What to run? Nominal (just the nominal), All(do all systematics) 
"TDPPath"                                : "dev/AnalysisTop/TopDataPreparation/XSection-MC15-13TeV.data" - Path to TopDataPreparation file (accessible via PathResolver)
"TauCollectionName"                      : "None"                              - Name of the Tau container
"TauEleBDTWP"                            : "Loose"                             - Tau electron BDT WP (None, Loose, Medium, Tight).Default Loose.
"TauEleBDTWPLoose"                       : "Loose"                             - Loose Tau electron BDT WP (None, Loose, Medium, Tight).Default Loose.
"TauEleOLR"                              : "False"                             - Apply tau-electron overlap removal (True/False).Default False
"TauEleOLRLoose"                         : "False"                             - Apply loose tau-electron overlap removal (True/False).Default False
"TauJetConfigFile"                       : "Default"                           - Config file to configure tau selection. If anything other than 'Default'then all cuts are taken from the config file rather than other options.
"TauJetConfigFileLoose"                  : "Default"                           - Config file to configure loose tau selection. If anything other than 'Default'then all cuts are taken from the config file rather than other options.
"TauJetIDWP"                             : "Medium"                            - Tau jet IDWP (None, Loose, Medium, Tight, LooseNotMedium, LooseNotTight, MediumNotTight, NotLoose).Default Medium.
"TauJetIDWPLoose"                        : "Medium"                            - Loose Tau jet IDWP (None, Loose, Medium, Tight, LooseNotMedium, LooseNotTight, MediumNotTight, NotLoose).Default None.
"TauPt"                                  : "25000"                             - Pt cut applied to both tight and loose taus (in MeV).Default 25 GeV.
"TauVariableSaveList"                    : "pt.eta.phi.m.charge.passPreORSelection" - The list of tau variables to save (EventSaverxAODNext only).
"TopParticleLevel"                       : "False"                             - Perform particle level selection? True or False
"TopPartonHistory"                       : "False"                             - ttbar, tb, Wtb, ttz, False (default)
"TrackJetCollectionName"                 : "None"                              - Name of the track Jet container
"TrackJetEta"                            : "2.5"                               - Absolute Track Jet eta cut for object selection. Default 2.5.
"TrackJetPt"                             : "7000."                             - Track Jet pT cut for object selection (in MeV). Default 7 GeV.
"TruthBlockInfo"                         : "False"                             - Do you want to dump the full Truth block info? True or False
"TruthCollectionName"                    : "TruthParticles"                    - Name of the Truth container
"TruthElectronCollectionName"            : "None"                              - Name of the Truth Electron container
"TruthElectronEta"                       : "2.5"                               - Absolute electron eta cut for [Particle Level / Truth] object selection. Default 2.5.
"TruthElectronPt"                        : "25000"                             - Electron pT cut for [Particle Level / Truth] object selection (in MeV). Default 25 GeV.
"TruthJetCollectionName"                 : "None"                              - Name of the Truth Jet container
"TruthJetEta"                            : "2.5"                               - Absolute Jet eta cut for [Particle Level / Truth] object selection. Default 2.5.
"TruthJetPt"                             : "25000"                             - Jet pT cut for [Particle Level / Truth] object selection (in MeV). Default 25 GeV.
"TruthLargeRJetCollectionName"           : "None"                              - Name of the Truth Large R Jet container
"TruthLargeRJetEta"                      : "2.5"                               - Absolute Large R Jet eta cut for [Particle Level / Truth] object selection. Default 2.5.
"TruthLargeRJetPt"                       : "25000"                             - Large R Jet pT cut for [Particle Level / Truth] object selection (in MeV). Default 25 GeV.
"TruthMETCollectionName"                 : "None"                              - Name of the Truth MET container
"TruthMuonCollectionName"                : "None"                              - Name of the Truth Muon container
"TruthMuonEta"                           : "2.5"                               - Absolute Muon eta cut for [Particle Level / Truth] object selection. Default 2.5.
"TruthMuonPt"                            : "25000"                             - Muon pT cut for [Particle Level / Truth] object selection (in MeV). Default 25 GeV.
"TruthPhotonCollectionName"              : "None"                              - Name of the Truth Photon container
"TruthPhotonEta"                         : "2.5"                               - Absolute Photon eta cut for [Particle Level / Truth] object selection. Default 2.5.
"TruthPhotonIsolation"                   : "ptcone30 0.1"                      - Configuration option for isolation applied to [Particle Level / Truth] photons. This can be False / None (isolation requirement disabled), True (use default isolation), or a configuration in the format `VAR CUT`, where VAR is one of the isolation variables and CUT is the cut applied as `VAR / pt < CUT`.
"TruthPhotonOrigin"                      : "WBoson,ZBoson,SinglePhot,Higgs,HiggsMSSM,WZMSSM,PromptPhot,SUSY,UndrPhot,FSRPhot" - Potential origin of [Particle Level / Truth] photons. Comma separated list of particle origin values as given by MCTruthClassifier (string names).
"TruthPhotonPt"                          : "25000"                             - Photon pT cut for [Particle Level / Truth] object selection (in MeV). Default 25 GeV.
"UseAntiMuons"                           : "false"                             - Use AntiMuons for fake estimate. Default: false
"UseAodMetaData"                         : "True"                              - Whether to read xAOD meta-data from input files (default: True)
"UseElectronChargeIDSelection"           : "False"                             - True/False. Switch on/off electron charge ID selection (Default False).
"UseEventLevelJetCleaningTool"           : "False"                             - Switch to turn on event-level jet cleaning tool (for testing), True or False (default False)
"UseGlobalLeptonTriggerSF"               : "False"                             - Switch to activate event-level trigger scale factors allowing multiple OR of single-, di-, tri- lepton triggers, True or False (default False)
"UseRCJetAdditionalSubstructure"         : "False"                             - Calculate Additional Reclustered Jet Substructure Variables. Default False
"UseRCJetSubstructure"                   : "False"                             - Calculate Reclustered Jet Substructure Variables. Default False
"UseRCJets"                              : "False"                             - Use Reclustered Jets. Default False.
"UseVarRCJetAdditionalSubstructure"      : "False"                             - Calculate Additional Variable-R Reclustered Jet Substructure Variables. Default False
"UseVarRCJetSubstructure"                : "False"                             - Calculate Variable-R Reclustered Jet Substructure Variables. Default False
"UseVarRCJets"                           : "False"                             - Use Reclustered Jets (Variable-R Jets). Default False.
"VarRCJetEta"                            : "2.0"                               - Reclustered Jet (variable-R) eta cut for object selection. Default 2.0.
"VarRCJetMassScale"                      : "m_w,m_z,m_h,m_t"                   - Reclustered Jet (variable-R) list of mass scale values (m_w,m_z,m_h,m_t). By default use all.
"VarRCJetMaxRadius"                      : "1.0"                               - Reclustered Jet (variable-R) max. radius cut for object selection. Default 1.0
"VarRCJetPt"                             : "100000."                           - Reclustered Jet (variable-R) pT cut for object selection (in MeV). Default 100000 MeV.
"VarRCJetRho"                            : "2"                                 - Reclustered Jet (variable-R) list of rho values (). Default 2.
"VarRCJetTrim"                           : "0.05"                              - Reclustered Jet (variable-R) trimming cut for object selection. Default 0.05.
"WriteTrackingData"                      : "True"                              - Whether to generate and store analysis-tracking data (default: True)
"applyTTVACut"                           : "True"                              - Decide if to apply lepton z0/d0 cuts
"bJSF"                                   : "1.0"                               - Used for top mass analysis, default is 1.0

Attempting to load library: libTopEventSelectionTools.so
Attempting to load library: libTopEventReconstructionTools.so
Attempting to load library: libFakeEfficiencyTool.so
Input filenames:
    1/2 File: /pnfs/desy.de/atlas//dq2/atlaslocalgroupdisk/rucio/user/fschenck/c3/fd/user.fschenck.16299696._000013.output.root Entries: 0 (No CollectionTree)
    2/2 File: /pnfs/desy.de/atlas//dq2/atlaslocalgroupdisk/rucio/user/fschenck/c8/76/user.fschenck.16299696._000037.output.root Entries: 0 (No CollectionTree)

Loading meta-data from input files ... AodMetaDataAccess::Found /cvmfs/atlas.cern.ch/repo/sw/software/21.2/AnalysisTop/21.2.45/InstallArea/x86_64-slc6-gcc62-opt/bin/AodMetaDataReader.py
Traceback (most recent call last):
  File "/cvmfs/atlas.cern.ch/repo/sw/software/21.2/AnalysisTop/21.2.45/InstallArea/x86_64-slc6-gcc62-opt/bin/AodMetaDataReader.py", line 280, in <module>
    main(sys.argv, out)
  File "/cvmfs/atlas.cern.ch/repo/sw/software/21.2/AnalysisTop/21.2.45/InstallArea/x86_64-slc6-gcc62-opt/bin/AodMetaDataReader.py", line 247, in main
    metaData = extractMetaData(path)
  File "/cvmfs/atlas.cern.ch/repo/sw/software/21.2/AnalysisTop/21.2.45/InstallArea/x86_64-slc6-gcc62-opt/bin/AodMetaDataReader.py", line 110, in extractMetaData
    metaDataTree = f.MetaData
AttributeError: TFile object has no attribute 'MetaData'
terminate called after throwing an instance of 'std::runtime_error'
  what():  data stream from AodMetaDataReader not properly terminated
/var/lib/condor/execute/dir_109052/condor_exec.exe: line 17: 115415 Aborted                 top-xaod Config.txt "${3}.txt"
mv: cannot stat `output.root': No such file or directory
